<svg xmlns="http://www.w3.org/2000/svg" width="30.619" height="23" viewBox="0 0 30.619 23">
  <g id="Groupe_5" data-name="Groupe 5" transform="translate(-1864.5 -75.102)">
    <path id="Tracé_53" data-name="Tracé 53" d="M1864.327,76.6h30.59" transform="translate(0.173)" fill="none" stroke="#fff" stroke-width="3"/>
    <path id="Tracé_54" data-name="Tracé 54" d="M1864.327,76.6h24.625" transform="translate(6.167 10)" fill="none" stroke="#fff" stroke-width="3"/>
    <path id="Tracé_55" data-name="Tracé 55" d="M1864.327,76.6h17.723" transform="translate(12.441 20)" fill="none" stroke="#fff" stroke-width="3"/>
  </g>
</svg>
